Blogpost 5: Air Campaigns · My New Hugo Site
…
library(leaflet)

## Warning: package 'leaflet' was built under R version 4.0.5

##BUILD DISTRICT LEVEL MODEL

## 
##   2012   2014   2016   2018 
## 685756 481597 470787 977127

## 
##   2012   2014   2016   2018 
## 685756 481597 470787 977127

## # A tibble: 247,208,009 × 24
##     year st_cd_fips office state.x winner_party DemCandidate  DemStatus 
##    <dbl> <chr>      <chr>  <chr>   <chr>        <chr>         <chr>     
##  1  2012 0102       House  Alabama R            Ford, Therese Challenger
##  2  2012 0102       House  Alabama R            Ford, Therese Challenger
##  3  2012 0102       House  Alabama R            Ford, Therese Challenger
##  4  2012 0102       House  Alabama R            Ford, Therese Challenger
##  5  2012 0102       House  Alabama R            Ford, Therese Challenger
##  6  2012 0102       House  Alabama R            Ford, Therese Challenger
##  7  2012 0102       House  Alabama R            Ford, Therese Challenger
##  8  2012 0102       House  Alabama R            Ford, Therese Challenger
##  9  2012 0102       House  Alabama R            Ford, Therese Challenger
## 10  2012 0102       House  Alabama R            Ford, Therese Challenger
## # … with 247,207,999 more rows, and 17 more variables:
## #   DemVotesMajorPercent <dbl>, winner_candidate <chr>,
## #   winner_candidate_inc <chr>, president_party <chr>, dem_status <dbl>,
## #   creative <chr>, race <chr>, airtime <time>, est_cost <dbl>,
## #   ad_purpose <chr>, party <chr>, cycle <dbl>, station <chr>, ad_tone <chr>,
## #   avg_spend <dbl>, average_support_dem <dbl>, average_support_rep <dbl>
…
